<?xml version="1.0" encoding="UTF-8" standalone="no"?>
<!DOCTYPE svg PUBLIC "-//W3C//DTD SVG 1.1//EN" "http://www.w3.org/Graphics/SVG/1.1/DTD/svg11.dtd">
<svg width="100%" height="100%" viewBox="0 0 1920 1080" version="1.1" xmlns="http://www.w3.org/2000/svg" xmlns:xlink="http://www.w3.org/1999/xlink" xml:space="preserve" xmlns:serif="http://www.serif.com/" style="fill-rule:evenodd;clip-rule:evenodd;stroke-linejoin:round;stroke-miterlimit:2;">
    <g id="_55" serif:id="55" transform="matrix(0.84577,0,0,0.84577,315.332,149.034)">
        <path d="M1201.24,584.536L1249.7,588.825L1244.35,654.582L1215.35,651.87L1212.81,685.788L1192.57,683.97L1201.24,584.536Z" style="fill:rgb(118,222,59);"/>
    </g>
</svg>
