<?xml version="1.0" encoding="UTF-8" standalone="no"?>
<!DOCTYPE svg PUBLIC "-//W3C//DTD SVG 1.1//EN" "http://www.w3.org/Graphics/SVG/1.1/DTD/svg11.dtd">
<svg width="100%" height="100%" viewBox="0 0 1920 1080" version="1.1" xmlns="http://www.w3.org/2000/svg" xmlns:xlink="http://www.w3.org/1999/xlink" xml:space="preserve" xmlns:serif="http://www.serif.com/" style="fill-rule:evenodd;clip-rule:evenodd;stroke-linejoin:round;stroke-miterlimit:2;">
    <g id="_58" serif:id="58" transform="matrix(0.84577,0,0,0.84577,486.446,163.635)">
        <path d="M1150.49,580.79L1198.58,584.316L1190.88,683.798L1171.18,681.561L1173.68,648.692L1144.53,645.998L1150.49,580.79Z" style="fill:rgb(118,222,59);"/>
    </g>
</svg>
