<?xml version="1.0" encoding="UTF-8" standalone="no"?>
<!DOCTYPE svg PUBLIC "-//W3C//DTD SVG 1.1//EN" "http://www.w3.org/Graphics/SVG/1.1/DTD/svg11.dtd">
<svg width="100%" height="100%" viewBox="0 0 1920 1080" version="1.1" xmlns="http://www.w3.org/2000/svg" xmlns:xlink="http://www.w3.org/1999/xlink" xml:space="preserve" xmlns:serif="http://www.serif.com/" style="fill-rule:evenodd;clip-rule:evenodd;stroke-linejoin:round;stroke-miterlimit:2;">
    <g id="_70" serif:id="70" transform="matrix(0.837358,0,0,0.871957,295.413,172.884)">
        <path d="M802.657,782.99L831.706,782.99L831.706,847.103L791.013,847.103L791.013,751.379L802.657,751.379L802.657,782.99Z" style="fill:rgb(118,222,59);"/>
    </g>
</svg>
