<?xml version="1.0" encoding="UTF-8" standalone="no"?>
<!DOCTYPE svg PUBLIC "-//W3C//DTD SVG 1.1//EN" "http://www.w3.org/Graphics/SVG/1.1/DTD/svg11.dtd">
<svg width="100%" height="100%" viewBox="0 0 1920 1080" version="1.1" xmlns="http://www.w3.org/2000/svg" xmlns:xlink="http://www.w3.org/1999/xlink" xml:space="preserve" xmlns:serif="http://www.serif.com/" style="fill-rule:evenodd;clip-rule:evenodd;stroke-linejoin:round;stroke-miterlimit:2;">
    <g id="_75" serif:id="75" transform="matrix(0.84577,0,0,0.84577,60.1436,127.478)">
        <path d="M886.262,793.925L916.29,793.925L916.29,859.752L875.705,859.752L875.705,759.955L886.262,759.955L886.262,793.925Z" style="fill:rgb(118,222,59);"/>
    </g>
</svg>
