<?xml version="1.0" encoding="UTF-8" standalone="no"?>
<!DOCTYPE svg PUBLIC "-//W3C//DTD SVG 1.1//EN" "http://www.w3.org/Graphics/SVG/1.1/DTD/svg11.dtd">
<svg width="100%" height="100%" viewBox="0 0 1920 1080" version="1.1" xmlns="http://www.w3.org/2000/svg" xmlns:xlink="http://www.w3.org/1999/xlink" xml:space="preserve" xmlns:serif="http://www.serif.com/" style="fill-rule:evenodd;clip-rule:evenodd;stroke-linejoin:round;stroke-miterlimit:2;">
    <g id="_02" serif:id="02" transform="matrix(0.84577,0,0,0.84577,60.1436,102.223)">
        <path d="M272.065,400.983L231.236,398.079L231.131,476.099L260.095,476.099L260.095,511.259L271.759,511.259L272.065,400.983Z" style="fill:rgb(118,222,59);"/>
    </g>
</svg>
