<?xml version="1.0" encoding="UTF-8" standalone="no"?>
<!DOCTYPE svg PUBLIC "-//W3C//DTD SVG 1.1//EN" "http://www.w3.org/Graphics/SVG/1.1/DTD/svg11.dtd">
<svg width="100%" height="100%" viewBox="0 0 1920 1080" version="1.1" xmlns="http://www.w3.org/2000/svg" xmlns:xlink="http://www.w3.org/1999/xlink" xml:space="preserve" xmlns:serif="http://www.serif.com/" style="fill-rule:evenodd;clip-rule:evenodd;stroke-linejoin:round;stroke-miterlimit:2;">
    <g id="_33" serif:id="33" transform="matrix(0.84577,0,0,0.84577,54.6944,126.551)">
        <path d="M1038.75,574.925L1038.75,674.348L1027.64,674.348L1027.64,640.091L998.697,640.091L998.697,574.925L1038.75,574.925Z" style="fill:rgb(118,222,59);"/>
    </g>
</svg>
