<?xml version="1.0" encoding="UTF-8" standalone="no"?>
<!DOCTYPE svg PUBLIC "-//W3C//DTD SVG 1.1//EN" "http://www.w3.org/Graphics/SVG/1.1/DTD/svg11.dtd">
<svg width="100%" height="100%" viewBox="0 0 1920 1080" version="1.1" xmlns="http://www.w3.org/2000/svg" xmlns:xlink="http://www.w3.org/1999/xlink" xml:space="preserve" xmlns:serif="http://www.serif.com/" style="fill-rule:evenodd;clip-rule:evenodd;stroke-linejoin:round;stroke-miterlimit:2;">
    <g id="_57" serif:id="57" transform="matrix(0.84577,0,0,0.84577,401.042,156.513)">
        <path d="M1201.24,584.536L1248.94,588.536L1244.35,653.641L1214.19,651.943L1212.09,684.702L1192.28,683.715L1201.24,584.536Z" style="fill:rgb(118,222,59);"/>
    </g>
</svg>
