<?xml version="1.0" encoding="UTF-8" standalone="no"?>
<!DOCTYPE svg PUBLIC "-//W3C//DTD SVG 1.1//EN" "http://www.w3.org/Graphics/SVG/1.1/DTD/svg11.dtd">
<svg width="100%" height="100%" viewBox="0 0 1920 1080" version="1.1" xmlns="http://www.w3.org/2000/svg" xmlns:xlink="http://www.w3.org/1999/xlink" xml:space="preserve" xmlns:serif="http://www.serif.com/" style="fill-rule:evenodd;clip-rule:evenodd;stroke-linejoin:round;stroke-miterlimit:2;">
    <g id="_82" serif:id="82" transform="matrix(0.84577,0,0,0.84577,102.909,131.441)">
        <path d="M1704.36,627.437L1723.53,628.981L1721.76,661.807L1750.17,664.607L1745.07,730.24L1696.24,726.548L1704.36,627.437Z" style="fill:rgb(118,222,59);"/>
    </g>
</svg>
